…
Below is a table summarizing the number of items ordered from aisle. In
total, there are 134 aisles, with fresh vegetables and fresh fruits
holding the most items ordered by far.

``` r
instacart %>% 
  count(aisle) %>% 
  arrange(desc(n))
```

    ## # A tibble: 134 × 2
    ##    aisle                              n
    ##    <chr>                          <int>
    ##  1 fresh vegetables              150609
    ##  2 fresh fruits                  150473
    ##  3 packaged vegetables fruits     78493
    ##  4 yogurt                         55240
    ##  5 packaged cheese                41699
    ##  6 water seltzer sparkling water  36617
    ##  7 milk                           32644
    ##  8 chips pretzels                 31269
    ##  9 soy lactosefree                26240
    ## 10 bread                          23635
    ## # … with 124 more rows
…
    ## Rows: 35 Columns: 1443
    ## ── Column specification ────────────────────────────────────────────────────────
    ## Delimiter: ","
    ## chr    (1): day
    ## dbl (1442): week, day_id, activity.1, activity.2, activity.3, activity.4, ac...
    ## 
    ## ℹ Use `spec()` to retrieve the full column specification for this data.
    ## ℹ Specify the column types or set `show_col_types = FALSE` to quiet this message.

``` r
accel_data_df
```

    ## # A tibble: 50,400 × 6
    ##     week day_id day    day_type activity_time_course_number activity_counts
    ##    <dbl>  <dbl> <chr>  <chr>    <chr>                                 <dbl>
    ##  1     1      1 Friday Weekday  activity_1                             88.4
    ##  2     1      1 Friday Weekday  activity_2                             82.2
    ##  3     1      1 Friday Weekday  activity_3                             64.4
    ##  4     1      1 Friday Weekday  activity_4                             70.0
    ##  5     1      1 Friday Weekday  activity_5                             75.0
    ##  6     1      1 Friday Weekday  activity_6                             66.3
    ##  7     1      1 Friday Weekday  activity_7                             53.8
    ##  8     1      1 Friday Weekday  activity_8                             47.8
    ##  9     1      1 Friday Weekday  activity_9                             55.5
    ## 10     1      1 Friday Weekday  activity_10                            43.0
    ## # … with 50,390 more rows
